{
  "current": {
    "colors_accent_1": "#067939",
    "colors_text": "#054f26",
    "type_header_font": "poppins_n5",
    "accent_icons": "text",
    "social_twitter_link": "https:\/\/twitter.com\/",
    "social_facebook_link": "https:\/\/facebook.com\/",
    "social_pinterest_link": "https:\/\/pinterest.com\/",
    "social_instagram_link": "http:\/\/instagram.com\/",
    "social_youtube_link": "https:\/\/www.youtube.com\/",
    "checkout_logo_image": "shopify:\/\/shop_images\/Suave_Favicon_2.png",
    "checkout_logo_position": "center",
    "checkout_logo_size": "large",
    "checkout_body_background_image": "shopify:\/\/shop_images\/Mens_Accessories.jpg",
    "checkout_heading_font": "-apple-system, BlinkMacSystemFont, 'Segoe UI', Roboto, Helvetica, Arial, sans-serif, 'Apple Color Emoji', 'Segoe UI Emoji', 'Segoe UI Symbol'",
    "checkout_accent_color": "#054f26",
    "checkout_button_color": "#067939",
    "sections": {
      "announcement-bar": {
        "type": "announcement-bar",
        "blocks": {
          "announcement-bar-0": {
            "type": "announcement",
            "settings": {
              "text": "- All Watches On Sale -",
              "color_scheme": "accent-1",
              "link": "shopify:\/\/collections\/watches"
            }
          }
        },
        "block_order": [
          "announcement-bar-0"
        ],
        "settings": {}
      },
      "header": {
        "type": "header",
        "settings": {
          "logo": "shopify:\/\/shop_images\/Suave_Man_Logo_2.png",
          "logo_width": 250,
          "logo_position": "middle-left",
          "menu": "main-menu",
          "show_line_separator": true,
          "enable_sticky_header": true
        }
      },
      "footer": {
        "type": "footer",
        "blocks": {
          "footer-0": {
            "type": "link_list",
            "settings": {
              "heading": "Quick links",
              "menu": "footer"
            }
          }
        },
        "block_order": [
          "footer-0"
        ],
        "settings": {
          "color_scheme": "inverse",
          "newsletter_enable": true,
          "newsletter_heading": "Sign up to our emails",
          "show_social": true,
          "enable_country_selector": false,
          "enable_language_selector": false,
          "payment_enable": false
        }
      }
    },
    "content_for_index": []
  }
}